<?xml version="1.0" encoding="utf-8"?>
<!-- Generated by IcoMoon.io -->
<!DOCTYPE svg PUBLIC "-//W3C//DTD SVG 1.1//EN" "http://www.w3.org/Graphics/SVG/1.1/DTD/svg11.dtd">
<svg version="1.1" xmlns="http://www.w3.org/2000/svg" xmlns:xlink="http://www.w3.org/1999/xlink" width="32" height="32" viewBox="0 0 32 32">
<path d="
M8 13v-13h24v13h-2v-11h-20v11z
M32 19v13h-24v-13h2v11h20v-11z
M10 15h4v2h-4z
M16 15h4v2h-4z
M22 15h4v2h-4z
M28 15h4v2h-4z
M0 10l6 6-6 6z
" fill="#787878"></path>
<path d="M15 12l7 7 7-7 3 3-7 7 7 7-3 3-7-7-7 7-3-3 7-7-7-7z" fill="#FF0000"></path>
</svg>
