<?xml version="1.0" encoding="utf-8"?>
<!-- Generated by IcoMoon.io -->
<!DOCTYPE svg PUBLIC "-//W3C//DTD SVG 1.1//EN" "http://www.w3.org/Graphics/SVG/1.1/DTD/svg11.dtd">
<svg version="1.1" xmlns="http://www.w3.org/2000/svg" xmlns:xlink="http://www.w3.org/1999/xlink" width="32" height="32" viewBox="0 0 32 32">
<path d="
M5 0h-5v24h5v-2h-3v-20h3z
M11 0h21v24h-21v-2h19v-20h-19z
M7 0v4h2v-4z
M7 6v4h2v-4z
M7 12v4h2v-4z
M7 18v4h2v-4z
M2 32l6 -6 6 6z
" fill="#787878"></path>
</svg>
